…
``` r
Data %>%
  group_by(sex, agegr) %>%
  count(EU) %>%
  mutate(percentage = n/sum(n) * 100)
```

    ## # A tibble: 31 x 5
    ## # Groups:   sex, agegr [11]
    ##    sex    agegr    EU        n percentage
    ##    <chr>  <chr>    <chr> <int>      <dbl>
    ##  1 female 16 to 25 0       371      24.3 
    ##  2 female 16 to 25 1       985      64.6 
    ##  3 female 16 to 25 <NA>    169      11.1 
    ##  4 female 26 to 40 0       817      32.8 
    ##  5 female 26 to 40 1      1455      58.5 
    ##  6 female 26 to 40 <NA>    216       8.68
    ##  7 female 41 to 55 0      1313      39.4 
    ##  8 female 41 to 55 1      1733      51.9 
    ##  9 female 41 to 55 <NA>    290       8.69
    ## 10 female 56 to 70 0      1448      45.2 
    ## # … with 21 more rows
…
